{"failedCount":0,"prefixedPath":"src\/test\/java\/features\/GetapiWithQuary.feature","packageQualifiedName":"src.test.java.features.GetapiWithQuary","loopIndex":-1,"relativePath":"src\/test\/java\/features\/GetapiWithQuary.feature","scenarioResults":[{"sectionIndex":0,"stepResults":[{"result":{"nanos":170051100,"millis":170.0511,"status":"passed"},"step":{"line":4,"prefix":"*","index":0,"text":"def query = {status:'active', gender:'male'}"}},{"result":{"nanos":18138800,"millis":18.1388,"status":"passed"},"step":{"line":6,"prefix":"Given","index":1,"text":"url baseUrl+'\/public\/v2\/users'"}},{"result":{"nanos":25730600,"millis":25.7306,"status":"passed"},"step":{"line":7,"prefix":"And","index":2,"text":"params query"}},{"result":{"nanos":1730249000,"millis":1730.249,"status":"passed"},"step":{"line":8,"prefix":"When","index":3,"text":"method GET"},"stepLog":"19:03:46.670 request:\n1 > GET https:\/\/gorest.co.in\/public\/v2\/users?gender=male&status=active\n1 > Host: gorest.co.in\n1 > Connection: Keep-Alive\n1 > User-Agent: Apache-HttpClient\/4.5.13 (Java\/17.0.3)\n1 > Accept-Encoding: gzip,deflate\n\n\n19:03:47.457 response time in milliseconds: 781\n1 < 200\n1 < Server: nginx\n1 < Date: Wed, 06 Jul 2022 13:34:04 GMT\n1 < Content-Type: application\/json; charset=utf-8\n1 < Transfer-Encoding: chunked\n1 < Connection: keep-alive\n1 < Vary: Accept-Encoding\n1 < Vary: Origin\n1 < X-Frame-Options: SAMEORIGIN\n1 < X-XSS-Protection: 0\n1 < X-Content-Type-Options: nosniff\n1 < X-Download-Options: noopen\n1 < X-Permitted-Cross-Domain-Policies: none\n1 < Referrer-Policy: strict-origin-when-cross-origin\n1 < X-Pagination-Total: 779\n1 < X-Pagination-Pages: 39\n1 < X-Pagination-Page: 1\n1 < X-Pagination-Limit: 20\n1 < X-Links-Previous: \n1 < X-Links-Current: https:\/\/gorest.co.in\/public\/v2\/users?page=1\n1 < X-Links-Next: https:\/\/gorest.co.in\/public\/v2\/users?page=2\n1 < ETag: W\/\"886701430888ebb89c6881432ad11f19\"\n1 < Cache-Control: max-age=0, private, must-revalidate\n1 < X-Request-Id: 1b560310-ccd9-42b9-b448-826b6c42b6fb\n1 < X-Runtime: 0.007666\n1 < Strict-Transport-Security: max-age=63072000; includeSubDomains\n[{\"id\":3254,\"name\":\"Sanya Nayar\",\"email\":\"sanya_nayar@hansen.org\",\"gender\":\"male\",\"status\":\"active\"},{\"id\":3209,\"name\":\"Ojaswini Bhattathiri\",\"email\":\"bhattathiri_ojaswini@west-bergnaum.co\",\"gender\":\"male\",\"status\":\"active\"},{\"id\":3205,\"name\":\"Fr. Agnimitra Verma\",\"email\":\"verma_fr_agnimitra@aufderhar.info\",\"gender\":\"male\",\"status\":\"active\"},{\"id\":3203,\"name\":\"Balachandra Patel\",\"email\":\"balachandra_patel@schuppe.io\",\"gender\":\"male\",\"status\":\"active\"},{\"id\":3198,\"name\":\"Mohan Talwar\",\"email\":\"mohan_talwar@bergnaum.name\",\"gender\":\"male\",\"status\":\"active\"},{\"id\":3197,\"name\":\"Chandak Adiga\",\"email\":\"adiga_chandak@rempel.co\",\"gender\":\"male\",\"status\":\"active\"},{\"id\":3195,\"name\":\"Chinmayanand Nehru\",\"email\":\"chinmayanand_nehru@wyman-kutch.net\",\"gender\":\"male\",\"status\":\"active\"},{\"id\":3190,\"name\":\"Vaijayanti Saini\",\"email\":\"saini_vaijayanti@beier.biz\",\"gender\":\"male\",\"status\":\"active\"},{\"id\":3176,\"name\":\"Mohana Verma\",\"email\":\"mohana_verma@kub-lemke.org\",\"gender\":\"male\",\"status\":\"active\"},{\"id\":3175,\"name\":\"Fr. Preity Devar\",\"email\":\"preity_fr_devar@goodwin-hand.org\",\"gender\":\"male\",\"status\":\"active\"},{\"id\":3172,\"name\":\"Gayatri Pandey\",\"email\":\"gayatri_pandey@ledner.co\",\"gender\":\"male\",\"status\":\"active\"},{\"id\":3170,\"name\":\"Shiv Kaniyar\",\"email\":\"shiv_kaniyar@wiza.co\",\"gender\":\"male\",\"status\":\"active\"},{\"id\":3169,\"name\":\"Anand Kapoor\",\"email\":\"anand_kapoor@kerluke.name\",\"gender\":\"male\",\"status\":\"active\"},{\"id\":3164,\"name\":\"Aarya Talwar\",\"email\":\"talwar_aarya@deckow.io\",\"gender\":\"male\",\"status\":\"active\"},{\"id\":3161,\"name\":\"Prof. Karunanidhi Saini\",\"email\":\"prof_saini_karunanidhi@ankunding.io\",\"gender\":\"male\",\"status\":\"active\"},{\"id\":3160,\"name\":\"Bhramar Tagore\",\"email\":\"bhramar_tagore@gleason.org\",\"gender\":\"male\",\"status\":\"active\"},{\"id\":3151,\"name\":\"Javas Butt\",\"email\":\"javas_butt@sipes.info\",\"gender\":\"male\",\"status\":\"active\"},{\"id\":3145,\"name\":\"Diptendu Nayar\",\"email\":\"diptendu_nayar@herman.net\",\"gender\":\"male\",\"status\":\"active\"},{\"id\":3144,\"name\":\"Mukul Panicker\",\"email\":\"panicker_mukul@bradtke.org\",\"gender\":\"male\",\"status\":\"active\"},{\"id\":3137,\"name\":\"Suryakanta Shah\",\"email\":\"shah_suryakanta@denesik.io\",\"gender\":\"male\",\"status\":\"active\"}]\n\n"},{"result":{"nanos":57600,"millis":0.0576,"status":"passed"},"step":{"line":9,"prefix":"Then","index":4,"text":"status 200"}},{"result":{"nanos":23549700,"millis":23.5497,"status":"passed"},"step":{"line":10,"prefix":"*","index":5,"text":"print response"},"stepLog":"19:03:47.497 [print] [\n  {\n    \"id\": 3254,\n    \"name\": \"Sanya Nayar\",\n    \"email\": \"sanya_nayar@hansen.org\",\n    \"gender\": \"male\",\n    \"status\": \"active\"\n  },\n  {\n    \"id\": 3209,\n    \"name\": \"Ojaswini Bhattathiri\",\n    \"email\": \"bhattathiri_ojaswini@west-bergnaum.co\",\n    \"gender\": \"male\",\n    \"status\": \"active\"\n  },\n  {\n    \"id\": 3205,\n    \"name\": \"Fr. Agnimitra Verma\",\n    \"email\": \"verma_fr_agnimitra@aufderhar.info\",\n    \"gender\": \"male\",\n    \"status\": \"active\"\n  },\n  {\n    \"id\": 3203,\n    \"name\": \"Balachandra Patel\",\n    \"email\": \"balachandra_patel@schuppe.io\",\n    \"gender\": \"male\",\n    \"status\": \"active\"\n  },\n  {\n    \"id\": 3198,\n    \"name\": \"Mohan Talwar\",\n    \"email\": \"mohan_talwar@bergnaum.name\",\n    \"gender\": \"male\",\n    \"status\": \"active\"\n  },\n  {\n    \"id\": 3197,\n    \"name\": \"Chandak Adiga\",\n    \"email\": \"adiga_chandak@rempel.co\",\n    \"gender\": \"male\",\n    \"status\": \"active\"\n  },\n  {\n    \"id\": 3195,\n    \"name\": \"Chinmayanand Nehru\",\n    \"email\": \"chinmayanand_nehru@wyman-kutch.net\",\n    \"gender\": \"male\",\n    \"status\": \"active\"\n  },\n  {\n    \"id\": 3190,\n    \"name\": \"Vaijayanti Saini\",\n    \"email\": \"saini_vaijayanti@beier.biz\",\n    \"gender\": \"male\",\n    \"status\": \"active\"\n  },\n  {\n    \"id\": 3176,\n    \"name\": \"Mohana Verma\",\n    \"email\": \"mohana_verma@kub-lemke.org\",\n    \"gender\": \"male\",\n    \"status\": \"active\"\n  },\n  {\n    \"id\": 3175,\n    \"name\": \"Fr. Preity Devar\",\n    \"email\": \"preity_fr_devar@goodwin-hand.org\",\n    \"gender\": \"male\",\n    \"status\": \"active\"\n  },\n  {\n    \"id\": 3172,\n    \"name\": \"Gayatri Pandey\",\n    \"email\": \"gayatri_pandey@ledner.co\",\n    \"gender\": \"male\",\n    \"status\": \"active\"\n  },\n  {\n    \"id\": 3170,\n    \"name\": \"Shiv Kaniyar\",\n    \"email\": \"shiv_kaniyar@wiza.co\",\n    \"gender\": \"male\",\n    \"status\": \"active\"\n  },\n  {\n    \"id\": 3169,\n    \"name\": \"Anand Kapoor\",\n    \"email\": \"anand_kapoor@kerluke.name\",\n    \"gender\": \"male\",\n    \"status\": \"active\"\n  },\n  {\n    \"id\": 3164,\n    \"name\": \"Aarya Talwar\",\n    \"email\": \"talwar_aarya@deckow.io\",\n    \"gender\": \"male\",\n    \"status\": \"active\"\n  },\n  {\n    \"id\": 3161,\n    \"name\": \"Prof. Karunanidhi Saini\",\n    \"email\": \"prof_saini_karunanidhi@ankunding.io\",\n    \"gender\": \"male\",\n    \"status\": \"active\"\n  },\n  {\n    \"id\": 3160,\n    \"name\": \"Bhramar Tagore\",\n    \"email\": \"bhramar_tagore@gleason.org\",\n    \"gender\": \"male\",\n    \"status\": \"active\"\n  },\n  {\n    \"id\": 3151,\n    \"name\": \"Javas Butt\",\n    \"email\": \"javas_butt@sipes.info\",\n    \"gender\": \"male\",\n    \"status\": \"active\"\n  },\n  {\n    \"id\": 3145,\n    \"name\": \"Diptendu Nayar\",\n    \"email\": \"diptendu_nayar@herman.net\",\n    \"gender\": \"male\",\n    \"status\": \"active\"\n  },\n  {\n    \"id\": 3144,\n    \"name\": \"Mukul Panicker\",\n    \"email\": \"panicker_mukul@bradtke.org\",\n    \"gender\": \"male\",\n    \"status\": \"active\"\n  },\n  {\n    \"id\": 3137,\n    \"name\": \"Suryakanta Shah\",\n    \"email\": \"shah_suryakanta@denesik.io\",\n    \"gender\": \"male\",\n    \"status\": \"active\"\n  }\n]\n \n"}],"executorName":"main","line":3,"name":"get all active and male users","description":"","durationMillis":1967.7768,"startTime":1657114424958,"failed":false,"refId":"[1:3]","endTime":1657114427500,"exampleIndex":-1},{"sectionIndex":1,"stepResults":[{"result":{"nanos":1076200,"millis":1.0762,"status":"passed"},"step":{"line":13,"prefix":"*","index":0,"text":"def query = {status: 'active'}"}},{"result":{"nanos":1347400,"millis":1.3474,"status":"passed"},"step":{"line":14,"prefix":"Given","index":1,"text":"url baseUrl+'\/public\/v1\/users'"}},{"result":{"nanos":540500,"millis":0.5405,"status":"passed"},"step":{"line":15,"prefix":"And","index":2,"text":"params query"}},{"result":{"nanos":263962400,"millis":263.9624,"status":"passed"},"step":{"line":16,"prefix":"When","index":3,"text":"method GET"},"stepLog":"19:03:47.534 request:\n1 > GET https:\/\/gorest.co.in\/public\/v1\/users?status=active\n1 > Host: gorest.co.in\n1 > Connection: Keep-Alive\n1 > User-Agent: Apache-HttpClient\/4.5.13 (Java\/17.0.3)\n1 > Accept-Encoding: gzip,deflate\n\n\n19:03:47.792 response time in milliseconds: 257\n1 < 200\n1 < Server: nginx\n1 < Date: Wed, 06 Jul 2022 13:34:04 GMT\n1 < Content-Type: application\/json; charset=utf-8\n1 < Transfer-Encoding: chunked\n1 < Connection: keep-alive\n1 < Vary: Accept-Encoding\n1 < Vary: Origin\n1 < X-Frame-Options: SAMEORIGIN\n1 < X-XSS-Protection: 0\n1 < X-Content-Type-Options: nosniff\n1 < X-Download-Options: noopen\n1 < X-Permitted-Cross-Domain-Policies: none\n1 < Referrer-Policy: strict-origin-when-cross-origin\n1 < ETag: W\/\"e16d9487c80f86b5951a5e4555393c45\"\n1 < Cache-Control: max-age=0, private, must-revalidate\n1 < X-Request-Id: ee1209e6-2753-45f6-8aba-1a99ec629576\n1 < X-Runtime: 0.008235\n1 < Strict-Transport-Security: max-age=63072000; includeSubDomains\n{\"meta\":{\"pagination\":{\"total\":1622,\"pages\":82,\"page\":1,\"limit\":20,\"links\":{\"previous\":null,\"current\":\"https:\/\/gorest.co.in\/public\/v1\/users?page=1\",\"next\":\"https:\/\/gorest.co.in\/public\/v1\/users?page=2\"}}},\"data\":[{\"id\":3269,\"name\":\"Girika Chopra V\",\"email\":\"girika_chopra_v@beatty-runolfsdottir.name\",\"gender\":\"female\",\"status\":\"active\"},{\"id\":3256,\"name\":\"Mr. Sukanya Acharya\",\"email\":\"sukanya_acharya_mr@leannon-shields.co\",\"gender\":\"female\",\"status\":\"active\"},{\"id\":3254,\"name\":\"Sanya Nayar\",\"email\":\"sanya_nayar@hansen.org\",\"gender\":\"male\",\"status\":\"active\"},{\"id\":3253,\"name\":\"Bankim Khan\",\"email\":\"bankim_khan@stroman.co\",\"gender\":\"female\",\"status\":\"active\"},{\"id\":3251,\"name\":\"Chandra Saini VM\",\"email\":\"saini_chandra_vm@ankunding.io\",\"gender\":\"female\",\"status\":\"active\"},{\"id\":3209,\"name\":\"Ojaswini Bhattathiri\",\"email\":\"bhattathiri_ojaswini@west-bergnaum.co\",\"gender\":\"male\",\"status\":\"active\"},{\"id\":3205,\"name\":\"Fr. Agnimitra Verma\",\"email\":\"verma_fr_agnimitra@aufderhar.info\",\"gender\":\"male\",\"status\":\"active\"},{\"id\":3203,\"name\":\"Balachandra Patel\",\"email\":\"balachandra_patel@schuppe.io\",\"gender\":\"male\",\"status\":\"active\"},{\"id\":3198,\"name\":\"Mohan Talwar\",\"email\":\"mohan_talwar@bergnaum.name\",\"gender\":\"male\",\"status\":\"active\"},{\"id\":3197,\"name\":\"Chandak Adiga\",\"email\":\"adiga_chandak@rempel.co\",\"gender\":\"male\",\"status\":\"active\"},{\"id\":3195,\"name\":\"Chinmayanand Nehru\",\"email\":\"chinmayanand_nehru@wyman-kutch.net\",\"gender\":\"male\",\"status\":\"active\"},{\"id\":3194,\"name\":\"Krishna Dutta\",\"email\":\"krishna_dutta@stanton.com\",\"gender\":\"female\",\"status\":\"active\"},{\"id\":3190,\"name\":\"Vaijayanti Saini\",\"email\":\"saini_vaijayanti@beier.biz\",\"gender\":\"male\",\"status\":\"active\"},{\"id\":3189,\"name\":\"Eshana Kakkar\",\"email\":\"kakkar_eshana@maggio.biz\",\"gender\":\"female\",\"status\":\"active\"},{\"id\":3182,\"name\":\"Udit Nayar\",\"email\":\"nayar_udit@wisozk.com\",\"gender\":\"female\",\"status\":\"active\"},{\"id\":3181,\"name\":\"Devak Butt\",\"email\":\"butt_devak@sipes.name\",\"gender\":\"female\",\"status\":\"active\"},{\"id\":3179,\"name\":\"Shreya Arora DVM\",\"email\":\"dvm_arora_shreya@dibbert.co\",\"gender\":\"female\",\"status\":\"active\"},{\"id\":3176,\"name\":\"Mohana Verma\",\"email\":\"mohana_verma@kub-lemke.org\",\"gender\":\"male\",\"status\":\"active\"},{\"id\":3175,\"name\":\"Fr. Preity Devar\",\"email\":\"preity_fr_devar@goodwin-hand.org\",\"gender\":\"male\",\"status\":\"active\"},{\"id\":3174,\"name\":\"Msgr. Chidaatma Verma\",\"email\":\"verma_msgr_chidaatma@runolfsdottir-casper.name\",\"gender\":\"female\",\"status\":\"active\"}]}\n\n"},{"result":{"nanos":20600,"millis":0.0206,"status":"passed"},"step":{"line":17,"prefix":"Then","index":4,"text":"status 200"}},{"result":{"nanos":2456700,"millis":2.4567,"status":"passed"},"step":{"line":18,"prefix":"*","index":5,"text":"print response"},"stepLog":"19:03:47.797 [print] {\n  \"meta\": {\n    \"pagination\": {\n      \"total\": 1622,\n      \"pages\": 82,\n      \"page\": 1,\n      \"limit\": 20,\n      \"links\": {\n        \"previous\": null,\n        \"current\": \"https:\/\/gorest.co.in\/public\/v1\/users?page=1\",\n        \"next\": \"https:\/\/gorest.co.in\/public\/v1\/users?page=2\"\n      }\n    }\n  },\n  \"data\": [\n    {\n      \"id\": 3269,\n      \"name\": \"Girika Chopra V\",\n      \"email\": \"girika_chopra_v@beatty-runolfsdottir.name\",\n      \"gender\": \"female\",\n      \"status\": \"active\"\n    },\n    {\n      \"id\": 3256,\n      \"name\": \"Mr. Sukanya Acharya\",\n      \"email\": \"sukanya_acharya_mr@leannon-shields.co\",\n      \"gender\": \"female\",\n      \"status\": \"active\"\n    },\n    {\n      \"id\": 3254,\n      \"name\": \"Sanya Nayar\",\n      \"email\": \"sanya_nayar@hansen.org\",\n      \"gender\": \"male\",\n      \"status\": \"active\"\n    },\n    {\n      \"id\": 3253,\n      \"name\": \"Bankim Khan\",\n      \"email\": \"bankim_khan@stroman.co\",\n      \"gender\": \"female\",\n      \"status\": \"active\"\n    },\n    {\n      \"id\": 3251,\n      \"name\": \"Chandra Saini VM\",\n      \"email\": \"saini_chandra_vm@ankunding.io\",\n      \"gender\": \"female\",\n      \"status\": \"active\"\n    },\n    {\n      \"id\": 3209,\n      \"name\": \"Ojaswini Bhattathiri\",\n      \"email\": \"bhattathiri_ojaswini@west-bergnaum.co\",\n      \"gender\": \"male\",\n      \"status\": \"active\"\n    },\n    {\n      \"id\": 3205,\n      \"name\": \"Fr. Agnimitra Verma\",\n      \"email\": \"verma_fr_agnimitra@aufderhar.info\",\n      \"gender\": \"male\",\n      \"status\": \"active\"\n    },\n    {\n      \"id\": 3203,\n      \"name\": \"Balachandra Patel\",\n      \"email\": \"balachandra_patel@schuppe.io\",\n      \"gender\": \"male\",\n      \"status\": \"active\"\n    },\n    {\n      \"id\": 3198,\n      \"name\": \"Mohan Talwar\",\n      \"email\": \"mohan_talwar@bergnaum.name\",\n      \"gender\": \"male\",\n      \"status\": \"active\"\n    },\n    {\n      \"id\": 3197,\n      \"name\": \"Chandak Adiga\",\n      \"email\": \"adiga_chandak@rempel.co\",\n      \"gender\": \"male\",\n      \"status\": \"active\"\n    },\n    {\n      \"id\": 3195,\n      \"name\": \"Chinmayanand Nehru\",\n      \"email\": \"chinmayanand_nehru@wyman-kutch.net\",\n      \"gender\": \"male\",\n      \"status\": \"active\"\n    },\n    {\n      \"id\": 3194,\n      \"name\": \"Krishna Dutta\",\n      \"email\": \"krishna_dutta@stanton.com\",\n      \"gender\": \"female\",\n      \"status\": \"active\"\n    },\n    {\n      \"id\": 3190,\n      \"name\": \"Vaijayanti Saini\",\n      \"email\": \"saini_vaijayanti@beier.biz\",\n      \"gender\": \"male\",\n      \"status\": \"active\"\n    },\n    {\n      \"id\": 3189,\n      \"name\": \"Eshana Kakkar\",\n      \"email\": \"kakkar_eshana@maggio.biz\",\n      \"gender\": \"female\",\n      \"status\": \"active\"\n    },\n    {\n      \"id\": 3182,\n      \"name\": \"Udit Nayar\",\n      \"email\": \"nayar_udit@wisozk.com\",\n      \"gender\": \"female\",\n      \"status\": \"active\"\n    },\n    {\n      \"id\": 3181,\n      \"name\": \"Devak Butt\",\n      \"email\": \"butt_devak@sipes.name\",\n      \"gender\": \"female\",\n      \"status\": \"active\"\n    },\n    {\n      \"id\": 3179,\n      \"name\": \"Shreya Arora DVM\",\n      \"email\": \"dvm_arora_shreya@dibbert.co\",\n      \"gender\": \"female\",\n      \"status\": \"active\"\n    },\n    {\n      \"id\": 3176,\n      \"name\": \"Mohana Verma\",\n      \"email\": \"mohana_verma@kub-lemke.org\",\n      \"gender\": \"male\",\n      \"status\": \"active\"\n    },\n    {\n      \"id\": 3175,\n      \"name\": \"Fr. Preity Devar\",\n      \"email\": \"preity_fr_devar@goodwin-hand.org\",\n      \"gender\": \"male\",\n      \"status\": \"active\"\n    },\n    {\n      \"id\": 3174,\n      \"name\": \"Msgr. Chidaatma Verma\",\n      \"email\": \"verma_msgr_chidaatma@runolfsdottir-casper.name\",\n      \"gender\": \"female\",\n      \"status\": \"active\"\n    }\n  ]\n}\n \n"},{"result":{"nanos":870800,"millis":0.8708,"status":"passed"},"step":{"line":19,"prefix":"*","index":6,"text":"def jsonResopons = response"}},{"result":{"nanos":3649500,"millis":3.6495,"status":"passed"},"step":{"line":20,"prefix":"*","index":7,"text":"print jsonResopons"},"stepLog":"19:03:47.802 [print] {\n  \"meta\": {\n    \"pagination\": {\n      \"total\": 1622,\n      \"pages\": 82,\n      \"page\": 1,\n      \"limit\": 20,\n      \"links\": {\n        \"previous\": null,\n        \"current\": \"https:\/\/gorest.co.in\/public\/v1\/users?page=1\",\n        \"next\": \"https:\/\/gorest.co.in\/public\/v1\/users?page=2\"\n      }\n    }\n  },\n  \"data\": [\n    {\n      \"id\": 3269,\n      \"name\": \"Girika Chopra V\",\n      \"email\": \"girika_chopra_v@beatty-runolfsdottir.name\",\n      \"gender\": \"female\",\n      \"status\": \"active\"\n    },\n    {\n      \"id\": 3256,\n      \"name\": \"Mr. Sukanya Acharya\",\n      \"email\": \"sukanya_acharya_mr@leannon-shields.co\",\n      \"gender\": \"female\",\n      \"status\": \"active\"\n    },\n    {\n      \"id\": 3254,\n      \"name\": \"Sanya Nayar\",\n      \"email\": \"sanya_nayar@hansen.org\",\n      \"gender\": \"male\",\n      \"status\": \"active\"\n    },\n    {\n      \"id\": 3253,\n      \"name\": \"Bankim Khan\",\n      \"email\": \"bankim_khan@stroman.co\",\n      \"gender\": \"female\",\n      \"status\": \"active\"\n    },\n    {\n      \"id\": 3251,\n      \"name\": \"Chandra Saini VM\",\n      \"email\": \"saini_chandra_vm@ankunding.io\",\n      \"gender\": \"female\",\n      \"status\": \"active\"\n    },\n    {\n      \"id\": 3209,\n      \"name\": \"Ojaswini Bhattathiri\",\n      \"email\": \"bhattathiri_ojaswini@west-bergnaum.co\",\n      \"gender\": \"male\",\n      \"status\": \"active\"\n    },\n    {\n      \"id\": 3205,\n      \"name\": \"Fr. Agnimitra Verma\",\n      \"email\": \"verma_fr_agnimitra@aufderhar.info\",\n      \"gender\": \"male\",\n      \"status\": \"active\"\n    },\n    {\n      \"id\": 3203,\n      \"name\": \"Balachandra Patel\",\n      \"email\": \"balachandra_patel@schuppe.io\",\n      \"gender\": \"male\",\n      \"status\": \"active\"\n    },\n    {\n      \"id\": 3198,\n      \"name\": \"Mohan Talwar\",\n      \"email\": \"mohan_talwar@bergnaum.name\",\n      \"gender\": \"male\",\n      \"status\": \"active\"\n    },\n    {\n      \"id\": 3197,\n      \"name\": \"Chandak Adiga\",\n      \"email\": \"adiga_chandak@rempel.co\",\n      \"gender\": \"male\",\n      \"status\": \"active\"\n    },\n    {\n      \"id\": 3195,\n      \"name\": \"Chinmayanand Nehru\",\n      \"email\": \"chinmayanand_nehru@wyman-kutch.net\",\n      \"gender\": \"male\",\n      \"status\": \"active\"\n    },\n    {\n      \"id\": 3194,\n      \"name\": \"Krishna Dutta\",\n      \"email\": \"krishna_dutta@stanton.com\",\n      \"gender\": \"female\",\n      \"status\": \"active\"\n    },\n    {\n      \"id\": 3190,\n      \"name\": \"Vaijayanti Saini\",\n      \"email\": \"saini_vaijayanti@beier.biz\",\n      \"gender\": \"male\",\n      \"status\": \"active\"\n    },\n    {\n      \"id\": 3189,\n      \"name\": \"Eshana Kakkar\",\n      \"email\": \"kakkar_eshana@maggio.biz\",\n      \"gender\": \"female\",\n      \"status\": \"active\"\n    },\n    {\n      \"id\": 3182,\n      \"name\": \"Udit Nayar\",\n      \"email\": \"nayar_udit@wisozk.com\",\n      \"gender\": \"female\",\n      \"status\": \"active\"\n    },\n    {\n      \"id\": 3181,\n      \"name\": \"Devak Butt\",\n      \"email\": \"butt_devak@sipes.name\",\n      \"gender\": \"female\",\n      \"status\": \"active\"\n    },\n    {\n      \"id\": 3179,\n      \"name\": \"Shreya Arora DVM\",\n      \"email\": \"dvm_arora_shreya@dibbert.co\",\n      \"gender\": \"female\",\n      \"status\": \"active\"\n    },\n    {\n      \"id\": 3176,\n      \"name\": \"Mohana Verma\",\n      \"email\": \"mohana_verma@kub-lemke.org\",\n      \"gender\": \"male\",\n      \"status\": \"active\"\n    },\n    {\n      \"id\": 3175,\n      \"name\": \"Fr. Preity Devar\",\n      \"email\": \"preity_fr_devar@goodwin-hand.org\",\n      \"gender\": \"male\",\n      \"status\": \"active\"\n    },\n    {\n      \"id\": 3174,\n      \"name\": \"Msgr. Chidaatma Verma\",\n      \"email\": \"verma_msgr_chidaatma@runolfsdottir-casper.name\",\n      \"gender\": \"female\",\n      \"status\": \"active\"\n    }\n  ]\n}\n \n"},{"result":{"nanos":2260700,"millis":2.2607,"status":"passed"},"step":{"line":21,"prefix":"*","index":8,"text":"def usercount = jsonResopons.data.length"}}],"executorName":"main","line":12,"name":"get all active users","description":"","durationMillis":276.1848,"startTime":1657114427523,"failed":false,"refId":"[2:12]","endTime":1657114427805,"exampleIndex":-1}],"callDepth":0,"name":"Get api query Parameters","description":"","resultDate":"2022-07-06 07:03:47 PM","durationMillis":2243.9616,"passedCount":2}