{"failedCount":0,"prefixedPath":"src\/test\/java\/features\/GetapiWithQuary.feature","packageQualifiedName":"src.test.java.features.GetapiWithQuary","loopIndex":-1,"relativePath":"src\/test\/java\/features\/GetapiWithQuary.feature","scenarioResults":[{"sectionIndex":0,"stepResults":[{"result":{"nanos":109705900,"millis":109.7059,"status":"passed"},"step":{"line":4,"prefix":"*","index":0,"text":"def query = {status:'active', gender:'male'}"}},{"result":{"nanos":14797700,"millis":14.7977,"status":"passed"},"step":{"line":6,"prefix":"Given","index":1,"text":"url baseUrl+'\/public\/v2\/users'"}},{"result":{"nanos":15953400,"millis":15.9534,"status":"passed"},"step":{"line":7,"prefix":"And","index":2,"text":"params query"}},{"result":{"nanos":1753014200,"millis":1753.0142,"status":"passed"},"step":{"line":8,"prefix":"When","index":3,"text":"method GET"},"stepLog":"15:30:06.373 request:\n1 > GET https:\/\/gorest.co.in\/public\/v2\/users?gender=male&status=active\n1 > Host: gorest.co.in\n1 > Connection: Keep-Alive\n1 > User-Agent: Apache-HttpClient\/4.5.13 (Java\/17.0.3)\n1 > Accept-Encoding: gzip,deflate\n\n\n15:30:07.056 response time in milliseconds: 676\n1 < 200\n1 < Server: nginx\n1 < Date: Wed, 06 Jul 2022 10:00:23 GMT\n1 < Content-Type: application\/json; charset=utf-8\n1 < Transfer-Encoding: chunked\n1 < Connection: keep-alive\n1 < Vary: Accept-Encoding\n1 < Vary: Origin\n1 < X-Frame-Options: SAMEORIGIN\n1 < X-XSS-Protection: 0\n1 < X-Content-Type-Options: nosniff\n1 < X-Download-Options: noopen\n1 < X-Permitted-Cross-Domain-Policies: none\n1 < Referrer-Policy: strict-origin-when-cross-origin\n1 < X-Pagination-Total: 811\n1 < X-Pagination-Pages: 41\n1 < X-Pagination-Page: 1\n1 < X-Pagination-Limit: 20\n1 < X-Links-Previous: \n1 < X-Links-Current: https:\/\/gorest.co.in\/public\/v2\/users?page=1\n1 < X-Links-Next: https:\/\/gorest.co.in\/public\/v2\/users?page=2\n1 < ETag: W\/\"026c3830048dde31a7cc41da4b835f6d\"\n1 < Cache-Control: max-age=0, private, must-revalidate\n1 < X-Request-Id: 8aa0c182-f180-45e1-ab7d-c9a4987cea8e\n1 < X-Runtime: 0.008365\n1 < Strict-Transport-Security: max-age=63072000; includeSubDomains\n[{\"id\":3312,\"name\":\"Niranjan Bhattacharya\",\"email\":\"niranjan_bhattacharya@rutherford.biz\",\"gender\":\"male\",\"status\":\"active\"},{\"id\":3311,\"name\":\"Veda Agarwal\",\"email\":\"veda_agarwal@mante-bednar.com\",\"gender\":\"male\",\"status\":\"active\"},{\"id\":3302,\"name\":\"Adheesh Bhattacharya\",\"email\":\"bhattacharya_adheesh@daugherty.info\",\"gender\":\"male\",\"status\":\"active\"},{\"id\":3295,\"name\":\"Chandravati Dutta\",\"email\":\"chandravati_dutta@daugherty.co\",\"gender\":\"male\",\"status\":\"active\"},{\"id\":3293,\"name\":\"Dhruv Mahajan\",\"email\":\"mahajan_dhruv@feil.org\",\"gender\":\"male\",\"status\":\"active\"},{\"id\":3288,\"name\":\"Baala Ganaka\",\"email\":\"baala_ganaka@connelly.com\",\"gender\":\"male\",\"status\":\"active\"},{\"id\":3287,\"name\":\"The Hon. Aatmaj Pilla\",\"email\":\"aatmaj_hon_the_pilla@hamill.com\",\"gender\":\"male\",\"status\":\"active\"},{\"id\":3278,\"name\":\"Rep. Chandi Devar\",\"email\":\"chandi_devar_rep@konopelski.com\",\"gender\":\"male\",\"status\":\"active\"},{\"id\":3277,\"name\":\"Fr. Brahmaanand Saini\",\"email\":\"brahmaanand_saini_fr@von.info\",\"gender\":\"male\",\"status\":\"active\"},{\"id\":3274,\"name\":\"Oormila Kaul III\",\"email\":\"iii_kaul_oormila@mohr.info\",\"gender\":\"male\",\"status\":\"active\"},{\"id\":3272,\"name\":\"Darshan Kocchar\",\"email\":\"darshan_kocchar@kemmer.co\",\"gender\":\"male\",\"status\":\"active\"},{\"id\":3265,\"name\":\"Amb. Mani Joshi\",\"email\":\"amb_mani_joshi@batz.org\",\"gender\":\"male\",\"status\":\"active\"},{\"id\":3264,\"name\":\"Rukhmani Achari\",\"email\":\"achari_rukhmani@gorczany.biz\",\"gender\":\"male\",\"status\":\"active\"},{\"id\":3262,\"name\":\"Anjaneya Somayaji\",\"email\":\"somayaji_anjaneya@parisian-kovacek.co\",\"gender\":\"male\",\"status\":\"active\"},{\"id\":3258,\"name\":\"Prof. Arjun Mishra\",\"email\":\"mishra_prof_arjun@nolan-lehner.info\",\"gender\":\"male\",\"status\":\"active\"},{\"id\":3257,\"name\":\"Miss Sloka Guneta\",\"email\":\"guneta_sloka_miss@renner.info\",\"gender\":\"male\",\"status\":\"active\"},{\"id\":3254,\"name\":\"Sanya Nayar\",\"email\":\"sanya_nayar@hansen.org\",\"gender\":\"male\",\"status\":\"active\"},{\"id\":3244,\"name\":\"Aruna Kapoor\",\"email\":\"aruna_kapoor@stehr-moore.io\",\"gender\":\"male\",\"status\":\"active\"},{\"id\":3243,\"name\":\"Manjusha Verma\",\"email\":\"manjusha_verma@windler-blick.net\",\"gender\":\"male\",\"status\":\"active\"},{\"id\":3234,\"name\":\"Achalesvara Gandhi\",\"email\":\"gandhi_achalesvara@bailey.co\",\"gender\":\"male\",\"status\":\"active\"}]\n\n"},{"result":{"nanos":47200,"millis":0.0472,"status":"passed"},"step":{"line":9,"prefix":"Then","index":4,"text":"status 200"}},{"result":{"nanos":20039500,"millis":20.0395,"status":"passed"},"step":{"line":10,"prefix":"*","index":5,"text":"print response"},"stepLog":"15:30:07.090 [print] [\n  {\n    \"id\": 3312,\n    \"name\": \"Niranjan Bhattacharya\",\n    \"email\": \"niranjan_bhattacharya@rutherford.biz\",\n    \"gender\": \"male\",\n    \"status\": \"active\"\n  },\n  {\n    \"id\": 3311,\n    \"name\": \"Veda Agarwal\",\n    \"email\": \"veda_agarwal@mante-bednar.com\",\n    \"gender\": \"male\",\n    \"status\": \"active\"\n  },\n  {\n    \"id\": 3302,\n    \"name\": \"Adheesh Bhattacharya\",\n    \"email\": \"bhattacharya_adheesh@daugherty.info\",\n    \"gender\": \"male\",\n    \"status\": \"active\"\n  },\n  {\n    \"id\": 3295,\n    \"name\": \"Chandravati Dutta\",\n    \"email\": \"chandravati_dutta@daugherty.co\",\n    \"gender\": \"male\",\n    \"status\": \"active\"\n  },\n  {\n    \"id\": 3293,\n    \"name\": \"Dhruv Mahajan\",\n    \"email\": \"mahajan_dhruv@feil.org\",\n    \"gender\": \"male\",\n    \"status\": \"active\"\n  },\n  {\n    \"id\": 3288,\n    \"name\": \"Baala Ganaka\",\n    \"email\": \"baala_ganaka@connelly.com\",\n    \"gender\": \"male\",\n    \"status\": \"active\"\n  },\n  {\n    \"id\": 3287,\n    \"name\": \"The Hon. Aatmaj Pilla\",\n    \"email\": \"aatmaj_hon_the_pilla@hamill.com\",\n    \"gender\": \"male\",\n    \"status\": \"active\"\n  },\n  {\n    \"id\": 3278,\n    \"name\": \"Rep. Chandi Devar\",\n    \"email\": \"chandi_devar_rep@konopelski.com\",\n    \"gender\": \"male\",\n    \"status\": \"active\"\n  },\n  {\n    \"id\": 3277,\n    \"name\": \"Fr. Brahmaanand Saini\",\n    \"email\": \"brahmaanand_saini_fr@von.info\",\n    \"gender\": \"male\",\n    \"status\": \"active\"\n  },\n  {\n    \"id\": 3274,\n    \"name\": \"Oormila Kaul III\",\n    \"email\": \"iii_kaul_oormila@mohr.info\",\n    \"gender\": \"male\",\n    \"status\": \"active\"\n  },\n  {\n    \"id\": 3272,\n    \"name\": \"Darshan Kocchar\",\n    \"email\": \"darshan_kocchar@kemmer.co\",\n    \"gender\": \"male\",\n    \"status\": \"active\"\n  },\n  {\n    \"id\": 3265,\n    \"name\": \"Amb. Mani Joshi\",\n    \"email\": \"amb_mani_joshi@batz.org\",\n    \"gender\": \"male\",\n    \"status\": \"active\"\n  },\n  {\n    \"id\": 3264,\n    \"name\": \"Rukhmani Achari\",\n    \"email\": \"achari_rukhmani@gorczany.biz\",\n    \"gender\": \"male\",\n    \"status\": \"active\"\n  },\n  {\n    \"id\": 3262,\n    \"name\": \"Anjaneya Somayaji\",\n    \"email\": \"somayaji_anjaneya@parisian-kovacek.co\",\n    \"gender\": \"male\",\n    \"status\": \"active\"\n  },\n  {\n    \"id\": 3258,\n    \"name\": \"Prof. Arjun Mishra\",\n    \"email\": \"mishra_prof_arjun@nolan-lehner.info\",\n    \"gender\": \"male\",\n    \"status\": \"active\"\n  },\n  {\n    \"id\": 3257,\n    \"name\": \"Miss Sloka Guneta\",\n    \"email\": \"guneta_sloka_miss@renner.info\",\n    \"gender\": \"male\",\n    \"status\": \"active\"\n  },\n  {\n    \"id\": 3254,\n    \"name\": \"Sanya Nayar\",\n    \"email\": \"sanya_nayar@hansen.org\",\n    \"gender\": \"male\",\n    \"status\": \"active\"\n  },\n  {\n    \"id\": 3244,\n    \"name\": \"Aruna Kapoor\",\n    \"email\": \"aruna_kapoor@stehr-moore.io\",\n    \"gender\": \"male\",\n    \"status\": \"active\"\n  },\n  {\n    \"id\": 3243,\n    \"name\": \"Manjusha Verma\",\n    \"email\": \"manjusha_verma@windler-blick.net\",\n    \"gender\": \"male\",\n    \"status\": \"active\"\n  },\n  {\n    \"id\": 3234,\n    \"name\": \"Achalesvara Gandhi\",\n    \"email\": \"gandhi_achalesvara@bailey.co\",\n    \"gender\": \"male\",\n    \"status\": \"active\"\n  }\n]\n \n"}],"executorName":"main","line":3,"name":"get all active and male users","description":"","durationMillis":1913.5579,"startTime":1657101604726,"failed":false,"refId":"[1:3]","endTime":1657101607092,"exampleIndex":-1},{"sectionIndex":1,"stepResults":[{"result":{"nanos":3728300,"millis":3.7283,"status":"passed"},"step":{"line":13,"prefix":"*","index":0,"text":"def query = {status: 'active'}"}},{"result":{"nanos":3600100,"millis":3.6001,"status":"passed"},"step":{"line":14,"prefix":"Given","index":1,"text":"url baseUrl+'\/public\/v1\/users'"}},{"result":{"nanos":681000,"millis":0.681,"status":"passed"},"step":{"line":15,"prefix":"And","index":2,"text":"params query"}},{"result":{"nanos":392055800,"millis":392.0558,"status":"passed"},"step":{"line":16,"prefix":"When","index":3,"text":"method GET"},"stepLog":"15:30:07.131 request:\n1 > GET https:\/\/gorest.co.in\/public\/v1\/users?status=active\n1 > Host: gorest.co.in\n1 > Connection: Keep-Alive\n1 > User-Agent: Apache-HttpClient\/4.5.13 (Java\/17.0.3)\n1 > Accept-Encoding: gzip,deflate\n\n\n15:30:07.516 response time in milliseconds: 384\n1 < 200\n1 < Server: nginx\n1 < Date: Wed, 06 Jul 2022 10:00:24 GMT\n1 < Content-Type: application\/json; charset=utf-8\n1 < Transfer-Encoding: chunked\n1 < Connection: keep-alive\n1 < Vary: Accept-Encoding\n1 < Vary: Origin\n1 < X-Frame-Options: SAMEORIGIN\n1 < X-XSS-Protection: 0\n1 < X-Content-Type-Options: nosniff\n1 < X-Download-Options: noopen\n1 < X-Permitted-Cross-Domain-Policies: none\n1 < Referrer-Policy: strict-origin-when-cross-origin\n1 < ETag: W\/\"c5774dd451cc72f7663f391cdcfa9404\"\n1 < Cache-Control: max-age=0, private, must-revalidate\n1 < X-Request-Id: 082c75d8-df4f-4af5-ba04-09eab1db8fb2\n1 < X-Runtime: 0.008285\n1 < Strict-Transport-Security: max-age=63072000; includeSubDomains\n{\"meta\":{\"pagination\":{\"total\":1683,\"pages\":85,\"page\":1,\"limit\":20,\"links\":{\"previous\":null,\"current\":\"https:\/\/gorest.co.in\/public\/v1\/users?page=1\",\"next\":\"https:\/\/gorest.co.in\/public\/v1\/users?page=2\"}}},\"data\":[{\"id\":3312,\"name\":\"Niranjan Bhattacharya\",\"email\":\"niranjan_bhattacharya@rutherford.biz\",\"gender\":\"male\",\"status\":\"active\"},{\"id\":3311,\"name\":\"Veda Agarwal\",\"email\":\"veda_agarwal@mante-bednar.com\",\"gender\":\"male\",\"status\":\"active\"},{\"id\":3304,\"name\":\"Nikita Malik\",\"email\":\"nikita_malik@nader-volkman.org\",\"gender\":\"female\",\"status\":\"active\"},{\"id\":3302,\"name\":\"Adheesh Bhattacharya\",\"email\":\"bhattacharya_adheesh@daugherty.info\",\"gender\":\"male\",\"status\":\"active\"},{\"id\":3295,\"name\":\"Chandravati Dutta\",\"email\":\"chandravati_dutta@daugherty.co\",\"gender\":\"male\",\"status\":\"active\"},{\"id\":3294,\"name\":\"Rajinder Chopra\",\"email\":\"chopra_rajinder@von.com\",\"gender\":\"female\",\"status\":\"active\"},{\"id\":3293,\"name\":\"Dhruv Mahajan\",\"email\":\"mahajan_dhruv@feil.org\",\"gender\":\"male\",\"status\":\"active\"},{\"id\":3291,\"name\":\"Trilokanath Naik DC\",\"email\":\"naik_dc_trilokanath@stamm.io\",\"gender\":\"female\",\"status\":\"active\"},{\"id\":3290,\"name\":\"Damayanti Naik\",\"email\":\"naik_damayanti@kuhn.io\",\"gender\":\"female\",\"status\":\"active\"},{\"id\":3288,\"name\":\"Baala Ganaka\",\"email\":\"baala_ganaka@connelly.com\",\"gender\":\"male\",\"status\":\"active\"},{\"id\":3287,\"name\":\"The Hon. Aatmaj Pilla\",\"email\":\"aatmaj_hon_the_pilla@hamill.com\",\"gender\":\"male\",\"status\":\"active\"},{\"id\":3285,\"name\":\"Bhuvanesh Rana\",\"email\":\"bhuvanesh_rana@hoeger.info\",\"gender\":\"female\",\"status\":\"active\"},{\"id\":3281,\"name\":\"Deeksha Tandon\",\"email\":\"tandon_deeksha@lubowitz.net\",\"gender\":\"female\",\"status\":\"active\"},{\"id\":3280,\"name\":\"Vimal Kaniyar\",\"email\":\"vimal_kaniyar@batz.io\",\"gender\":\"female\",\"status\":\"active\"},{\"id\":3278,\"name\":\"Rep. Chandi Devar\",\"email\":\"chandi_devar_rep@konopelski.com\",\"gender\":\"male\",\"status\":\"active\"},{\"id\":3277,\"name\":\"Fr. Brahmaanand Saini\",\"email\":\"brahmaanand_saini_fr@von.info\",\"gender\":\"male\",\"status\":\"active\"},{\"id\":3274,\"name\":\"Oormila Kaul III\",\"email\":\"iii_kaul_oormila@mohr.info\",\"gender\":\"male\",\"status\":\"active\"},{\"id\":3273,\"name\":\"Bela Chopra\",\"email\":\"chopra_bela@gleichner-mitchell.io\",\"gender\":\"female\",\"status\":\"active\"},{\"id\":3272,\"name\":\"Darshan Kocchar\",\"email\":\"darshan_kocchar@kemmer.co\",\"gender\":\"male\",\"status\":\"active\"},{\"id\":3271,\"name\":\"Kashyap Jain\",\"email\":\"jain_kashyap@wisoky.com\",\"gender\":\"female\",\"status\":\"active\"}]}\n\n"},{"result":{"nanos":19000,"millis":0.019,"status":"passed"},"step":{"line":17,"prefix":"Then","index":4,"text":"status 200"}},{"result":{"nanos":2903400,"millis":2.9034,"status":"passed"},"step":{"line":18,"prefix":"*","index":5,"text":"print response"},"stepLog":"15:30:07.521 [print] {\n  \"meta\": {\n    \"pagination\": {\n      \"total\": 1683,\n      \"pages\": 85,\n      \"page\": 1,\n      \"limit\": 20,\n      \"links\": {\n        \"previous\": null,\n        \"current\": \"https:\/\/gorest.co.in\/public\/v1\/users?page=1\",\n        \"next\": \"https:\/\/gorest.co.in\/public\/v1\/users?page=2\"\n      }\n    }\n  },\n  \"data\": [\n    {\n      \"id\": 3312,\n      \"name\": \"Niranjan Bhattacharya\",\n      \"email\": \"niranjan_bhattacharya@rutherford.biz\",\n      \"gender\": \"male\",\n      \"status\": \"active\"\n    },\n    {\n      \"id\": 3311,\n      \"name\": \"Veda Agarwal\",\n      \"email\": \"veda_agarwal@mante-bednar.com\",\n      \"gender\": \"male\",\n      \"status\": \"active\"\n    },\n    {\n      \"id\": 3304,\n      \"name\": \"Nikita Malik\",\n      \"email\": \"nikita_malik@nader-volkman.org\",\n      \"gender\": \"female\",\n      \"status\": \"active\"\n    },\n    {\n      \"id\": 3302,\n      \"name\": \"Adheesh Bhattacharya\",\n      \"email\": \"bhattacharya_adheesh@daugherty.info\",\n      \"gender\": \"male\",\n      \"status\": \"active\"\n    },\n    {\n      \"id\": 3295,\n      \"name\": \"Chandravati Dutta\",\n      \"email\": \"chandravati_dutta@daugherty.co\",\n      \"gender\": \"male\",\n      \"status\": \"active\"\n    },\n    {\n      \"id\": 3294,\n      \"name\": \"Rajinder Chopra\",\n      \"email\": \"chopra_rajinder@von.com\",\n      \"gender\": \"female\",\n      \"status\": \"active\"\n    },\n    {\n      \"id\": 3293,\n      \"name\": \"Dhruv Mahajan\",\n      \"email\": \"mahajan_dhruv@feil.org\",\n      \"gender\": \"male\",\n      \"status\": \"active\"\n    },\n    {\n      \"id\": 3291,\n      \"name\": \"Trilokanath Naik DC\",\n      \"email\": \"naik_dc_trilokanath@stamm.io\",\n      \"gender\": \"female\",\n      \"status\": \"active\"\n    },\n    {\n      \"id\": 3290,\n      \"name\": \"Damayanti Naik\",\n      \"email\": \"naik_damayanti@kuhn.io\",\n      \"gender\": \"female\",\n      \"status\": \"active\"\n    },\n    {\n      \"id\": 3288,\n      \"name\": \"Baala Ganaka\",\n      \"email\": \"baala_ganaka@connelly.com\",\n      \"gender\": \"male\",\n      \"status\": \"active\"\n    },\n    {\n      \"id\": 3287,\n      \"name\": \"The Hon. Aatmaj Pilla\",\n      \"email\": \"aatmaj_hon_the_pilla@hamill.com\",\n      \"gender\": \"male\",\n      \"status\": \"active\"\n    },\n    {\n      \"id\": 3285,\n      \"name\": \"Bhuvanesh Rana\",\n      \"email\": \"bhuvanesh_rana@hoeger.info\",\n      \"gender\": \"female\",\n      \"status\": \"active\"\n    },\n    {\n      \"id\": 3281,\n      \"name\": \"Deeksha Tandon\",\n      \"email\": \"tandon_deeksha@lubowitz.net\",\n      \"gender\": \"female\",\n      \"status\": \"active\"\n    },\n    {\n      \"id\": 3280,\n      \"name\": \"Vimal Kaniyar\",\n      \"email\": \"vimal_kaniyar@batz.io\",\n      \"gender\": \"female\",\n      \"status\": \"active\"\n    },\n    {\n      \"id\": 3278,\n      \"name\": \"Rep. Chandi Devar\",\n      \"email\": \"chandi_devar_rep@konopelski.com\",\n      \"gender\": \"male\",\n      \"status\": \"active\"\n    },\n    {\n      \"id\": 3277,\n      \"name\": \"Fr. Brahmaanand Saini\",\n      \"email\": \"brahmaanand_saini_fr@von.info\",\n      \"gender\": \"male\",\n      \"status\": \"active\"\n    },\n    {\n      \"id\": 3274,\n      \"name\": \"Oormila Kaul III\",\n      \"email\": \"iii_kaul_oormila@mohr.info\",\n      \"gender\": \"male\",\n      \"status\": \"active\"\n    },\n    {\n      \"id\": 3273,\n      \"name\": \"Bela Chopra\",\n      \"email\": \"chopra_bela@gleichner-mitchell.io\",\n      \"gender\": \"female\",\n      \"status\": \"active\"\n    },\n    {\n      \"id\": 3272,\n      \"name\": \"Darshan Kocchar\",\n      \"email\": \"darshan_kocchar@kemmer.co\",\n      \"gender\": \"male\",\n      \"status\": \"active\"\n    },\n    {\n      \"id\": 3271,\n      \"name\": \"Kashyap Jain\",\n      \"email\": \"jain_kashyap@wisoky.com\",\n      \"gender\": \"female\",\n      \"status\": \"active\"\n    }\n  ]\n}\n \n"}],"executorName":"main","line":12,"name":"get all active users","description":"","durationMillis":402.9876,"startTime":1657101607111,"failed":false,"refId":"[2:12]","endTime":1657101607522,"exampleIndex":-1}],"callDepth":0,"name":"Get api query Parameters","description":"","resultDate":"2022-07-06 03:30:07 PM","durationMillis":2316.5455,"passedCount":2}